verilog/final/bag.vcd
$date
	Sat May  7 11:52:05 2016
$end
$version
	Icarus Verilog
$end
$timescale
	1ns
$end
$scope module main_tb $end
$var wire 1 ! beqSatisfied $end
$var wire 1 " jumpDecision $end
$var wire 8 # sp_data [7:0] $end
$var wire 1 $ sltReg $end
$var wire 2 % sltCtrl [1:0] $end
$var wire 8 & s2_data [7:0] $end
$var wire 8 ' s1_data [7:0] $end
$var wire 8 ( rtData [7:0] $end
$var wire 2 ) rtAddr [1:0] $end
$var wire 2 * rsWriteAddr [1:0] $end
$var wire 8 + rsData [7:0] $end
$var wire 2 , rsAddr [1:0] $end
$var wire 1 - regWrite $end
$var wire 8 . readData [7:0] $end
$var wire 1 / ractrl $end
$var wire 8 0 ra_data [7:0] $end
$var wire 8 1 pcFinalOut [7:0] $end
$var wire 8 2 pcAddrOutPlusOne [7:0] $end
$var wire 8 3 pcAddrOutPlusImm [7:0] $end
$var wire 8 4 pcAddrOut [7:0] $end
$var wire 2 5 nextctrl [1:0] $end
$var wire 1 6 muxJumpFlag $end
$var wire 8 7 muxALUsrc [7:0] $end
$var wire 1 8 memctrl $end
$var wire 1 9 memWrite $end
$var wire 2 : memToReg [1:0] $end
$var wire 1 ; memRead $end
$var wire 1 < jumpFlag_ALUctrl $end
$var wire 1 = jumpCtrlToMux $end
$var wire 8 > jumpCheck8 [7:0] $end
$var wire 2 ? jumpCheck2 [1:0] $end
$var wire 1 @ jrctrl $end
$var wire 1 A jctrl $end
$var wire 1 B jalctrl $end
$var wire 8 C jalAddr [7:0] $end
$var wire 8 D jImm8 [7:0] $end
$var wire 5 E jImm5 [4:0] $end
$var wire 8 F instruction [7:0] $end
$var wire 3 G inst2CtrlUnit [2:0] $end
$var wire 8 H iImm8 [7:0] $end
$var wire 2 I iImm2 [1:0] $end
$var wire 1 J funct $end
$var wire 8 K dataToWrite [7:0] $end
$var wire 1 L beqctrl $end
$var wire 1 M ALUsrc $end
$var wire 8 N ALUresult [7:0] $end
$var wire 3 O ALUctrlbits [2:0] $end
$var wire 3 P ALUOp [2:0] $end
$var reg 1 Q clk $end
$var reg 1 R reset $end
$var reg 2 S returnAddr [1:0] $end
$var reg 1 T zero $end
$scope module addition_1 $end
$var wire 8 U in [7:0] $end
$var reg 8 V out [7:0] $end
$upscope $end
$scope module addition_imm $end
$var wire 8 W in [7:0] $end
$var wire 8 X immediate [7:0] $end
$var reg 8 Y out [7:0] $end
$upscope $end
$scope module alu_ctrl_unit $end
$var wire 1 J funct $end
$var wire 3 Z ALUop [2:0] $end
$var reg 3 [ ALUctrlbits [2:0] $end
$upscope $end
$scope module alu_with_ctrl $end
$var wire 3 \ ALUctrlbits [2:0] $end
$var wire 1 Q clk $end
$var wire 8 ] data2 [7:0] $end
$var wire 8 ^ data1 [7:0] $end
$var reg 8 _ result [7:0] $end
$var reg 8 ` save_msb [7:0] $end
$var reg 1 $ slt_reg $end
$var reg 1 < zero $end
$upscope $end
$scope module compareJump $end
$var wire 8 a in [7:0] $end
$var reg 1 = zero $end
$upscope $end
$scope module control_unit $end
$var wire 1 6 inst2 $end
$var wire 3 b inst1 [2:0] $end
$var reg 3 c ALUop [2:0] $end
$var reg 1 M ALUsrc $end
$var reg 1 L beqctrl $end
$var reg 4 d instructions [3:0] $end
$var reg 1 B jalctrl $end
$var reg 1 A jctrl $end
$var reg 1 @ jrctrl $end
$var reg 1 ; memRead $end
$var reg 2 e memToReg [1:0] $end
$var reg 1 9 memWrite $end
$var reg 1 8 memctrl $end
$var reg 2 f nextctrl [1:0] $end
$var reg 1 / ractrl $end
$var reg 1 - regWrite $end
$var reg 2 g sltctrl [1:0] $end
$upscope $end
$scope module ctrlJR $end
$var wire 1 / ctrl $end
$var wire 2 h input1 [1:0] $end
$var wire 2 i input0 [1:0] $end
$var reg 2 j output1 [1:0] $end
$upscope $end
$scope module ctrlJumpMux $end
$var wire 1 = ctrl $end
$var wire 1 T input0 $end
$var wire 1 J input1 $end
$var reg 1 6 output1 $end
$upscope $end
$scope module ctrl_immmediate $end
$var wire 1 M ctrl $end
$var wire 8 k input1 [7:0] $end
$var wire 8 l input0 [7:0] $end
$var reg 8 m output1 [7:0] $end
$upscope $end
$scope module ctrl_write_back $end
$var wire 2 n ctrl [1:0] $end
$var wire 8 o input0 [7:0] $end
$var wire 8 p input2 [7:0] $end
$var wire 8 q input1 [7:0] $end
$var reg 8 r output1 [7:0] $end
$upscope $end
$scope module ctrljalMUX $end
$var wire 1 " ctrl $end
$var wire 8 s input0 [7:0] $end
$var wire 8 t input1 [7:0] $end
$var reg 8 u output1 [7:0] $end
$upscope $end
$scope module ctrljrMUX $end
$var wire 1 @ ctrl $end
$var wire 8 v input0 [7:0] $end
$var wire 8 w input1 [7:0] $end
$var reg 8 x output1 [7:0] $end
$upscope $end
$scope module extension_2to8_1 $end
$var wire 2 y datain [1:0] $end
$var reg 8 z dataout [7:0] $end
$var reg 7 { sign [6:0] $end
$upscope $end
$scope module extension_2to8_2 $end
$var wire 2 | datain [1:0] $end
$var reg 8 } dataout [7:0] $end
$var reg 7 ~ sign [6:0] $end
$upscope $end
$scope module extension_5to8 $end
$var wire 5 !" datain [4:0] $end
$var reg 8 "" dataout [7:0] $end
$var reg 4 #" sign [3:0] $end
$upscope $end
$scope module instruction_register $end
$var wire 8 $" instruction_input [7:0] $end
$var reg 1 J funct $end
$var reg 2 %" i_immediate [1:0] $end
$var reg 3 &" instruction_to_control_unit [2:0] $end
$var reg 5 '" j_immediate [4:0] $end
$var reg 2 (" jump_opcode_check [1:0] $end
$var reg 2 )" rs [1:0] $end
$var reg 2 *" rt [1:0] $end
$upscope $end
$scope module main_memory $end
$var wire 8 +" input_addr [7:0] $end
$var wire 1 ; memRead $end
$var wire 1 9 memWrite $end
$var wire 8 ," pc [7:0] $end
$var wire 8 -" dataMemWrite [7:0] $end
$var reg 8 ." instructions [7:0] $end
$var reg 8 /" readData [7:0] $end
$upscope $end
$scope module program_counter $end
$var wire 1 Q clk $end
$var wire 8 0" input1 [7:0] $end
$var wire 8 1" pc [7:0] $end
$var wire 1 R reset $end
$var reg 8 2" output1 [7:0] $end
$upscope $end
$scope module register_file $end
$var wire 1 M ALUsrc $end
$var wire 1 L beqctrl $end
$var wire 1 Q clk $end
$var wire 8 3" dataToWrite [7:0] $end
$var wire 1 @ jrctrl $end
$var wire 1 8 memctrl $end
$var wire 1 - regWrite $end
$var wire 2 4" rs_addr [1:0] $end
$var wire 2 5" rs_write_addr [1:0] $end
$var wire 2 6" rt_addr [1:0] $end
$var wire 2 7" slt_reg [1:0] $end
$var reg 8 8" ra_data [7:0] $end
$var reg 8 9" rs_data [7:0] $end
$var reg 8 :" rt_data [7:0] $end
$var reg 8 ;" s1_data [7:0] $end
$var reg 8 <" s2_data [7:0] $end
$var reg 8 =" sp_data [7:0] $end
$var reg 8 >" t0 [7:0] $end
$var reg 8 ?" t1 [7:0] $end
$upscope $end
$upscope $end
$enddefinitions $end
#0
$dumpvars
b0 ?"
b0 >"
b11111111 ="
b0 <"
b0 ;"
b0 :"
b0 9"
b0 8"
b0 7"
b10 6"
b10 5"
b10 4"
b0 3"
b0 2"
b1101010 1"
b1 0"
b0 /"
b1101010 ."
b0 -"
b0 ,"
b0 +"
b10 *"
b10 )"
b1 ("
b1010 '"
b11 &"
b10 %"
b1101010 $"
b0 #"
b1010 ""
b1010 !"
b111111 ~
b11111110 }
b10 |
b0 {
b1 z
b1 y
b1 x
b0 w
b1 v
b1 u
b1010 t
b1 s
b0 r
b0 q
b1 p
b0 o
b0 n
b0 m
b0 l
b11111110 k
b10 j
b10 i
b11 h
b0 g
b0 f
b0 e
b110 d
b11 c
b11 b
b1 a
b0 `
b0 _
b0 ^
b0 ]
b100 \
b100 [
b11 Z
b1010 Y
b1010 X
b0 W
b1 V
b0 U
0T
b11 S
1R
0Q
b11 P
b100 O
b0 N
0M
0L
b0 K
0J
b10 I
b11111110 H
b11 G
b1101010 F
b1010 E
b1010 D
b1 C
0B
0A
0@
b1 ?
b1 >
1=
0<
0;
b0 :
09
08
b0 7
06
b0 5
b0 4
b1010 3
b1 2
b1 1
b0 0
0/
b0 .
1-
b10 ,
b0 +
b10 *
b10 )
b0 (
b0 '
b0 &
b0 %
x$
b11111111 #
0"
0!
$end
#1
b11111110 K
b11111110 r
b11111110 3"
b11111110 N
b11111110 _
b11111110 o
b11111110 +"
b11111111 7
b11111111 ^
b11111111 m
b11111111 +
b11111111 ]
b11111111 w
b11111111 9"
b11111111 (
b11111111 l
b11111111 -"
b11111111 :"
1Q
#2
b11111110 #
b11111110 ="
0Q
0R
#3
b10 1
b10 x
b10 0"
b10 C
b10 u
b10 v
b10 2
b10 V
b10 p
b10 s
b1011 3
b1011 Y
b1011 t
b1 4
b1 U
b1 W
b1 ,"
b1 2"
b11111100 K
b11111100 r
b11111100 3"
b11111100 N
b11111100 _
b11111100 o
b11111100 +"
b11111110 7
b11111110 ^
b11111110 m
b11111110 +
b11111110 ]
b11111110 w
b11111110 9"
b11111110 (
b11111110 l
b11111110 -"
b11111110 :"
1Q
#4
b11111100 #
b11111100 ="
0Q
#5
b11111000 K
b11111000 r
b11111000 3"
b11111000 N
b11111000 _
b11111000 o
b11111000 +"
b11111100 7
b11111100 ^
b11111100 m
b11111100 +
b11111100 ]
b11111100 w
b11111100 9"
b11111100 (
b11111100 l
b11111100 -"
b11111100 :"
1Q
#6
b11111101 K
b11111101 r
b11111101 3"
b11111101 N
b11111101 _
b11111101 o
b11111101 +"
b1 7
b1 ^
b1 m
b1 O
b1 [
b1 \
b1 H
b1 k
b1 }
b0 ~
1M
b100 P
b100 Z
b100 c
b1010 d
b11111110 >
b11111110 a
b11111110 z
b111111 {
b110 D
b110 X
b110 ""
b1 I
b1 |
b1 %"
b1 )
b1 *"
b1 6"
b101 G
b101 b
b101 &"
b10 ?
b10 y
b10 ("
b110 E
b110 !"
b110 '"
b11 1
b11 x
b11 0"
b11 C
b11 u
b11 v
b11 2
b11 V
b11 p
b11 s
b1000 3
b1000 Y
b1000 t
b10100110 F
b10100110 $"
b10100110 ."
b10100110 1"
b10 4
b10 U
b10 W
b10 ,"
b10 2"
b11111000 #
b11111000 ="
0Q
#7
b11111001 K
b11111001 r
b11111001 3"
b11111001 N
b11111001 _
b11111001 o
b11111001 +"
b11111000 +
b11111000 ]
b11111000 w
b11111000 9"
b0 (
b0 l
b0 -"
b0 :"
1Q
#8
b0 K
b0 r
b0 3"
b0 N
b0 _
b0 o
b0 +"
b0 7
b0 ^
b0 m
b100 O
b100 [
b100 \
b11111110 H
b11111110 k
b11111110 }
b111111 ~
0M
b11 P
b11 Z
b11 c
b110 d
b1 >
b1 a
b1 z
b0 {
b1010 D
b1010 X
b1010 ""
b10 I
b10 |
b10 %"
b10 )
b10 *"
b10 6"
b11 G
b11 b
b11 &"
b1 ?
b1 y
b1 ("
b1010 E
b1010 !"
b1010 '"
b100 1
b100 x
b100 0"
b100 C
b100 u
b100 v
b100 2
b100 V
b100 p
b100 s
b1101 3
b1101 Y
b1101 t
b1101010 F
b1101010 $"
b1101010 ."
b1101010 1"
b11 4
b11 U
b11 W
b11 ,"
b11 2"
b11111001 #
b11111001 ="
0Q
#9
b11110010 K
b11110010 r
b11110010 3"
b11110010 N
b11110010 _
b11110010 o
b11110010 +"
b11111001 7
b11111001 ^
b11111001 m
b11111001 +
b11111001 ]
b11111001 w
b11111001 9"
b11111001 (
b11111001 l
b11111001 -"
b11111001 :"
1Q
#10
b101 1
b101 x
b101 0"
b101 C
b101 u
b101 v
b101 2
b101 V
b101 p
b101 s
b1110 3
b1110 Y
b1110 t
b100 4
b100 U
b100 W
b100 ,"
b100 2"
b11110010 #
b11110010 ="
0Q
#11
b11100100 K
b11100100 r
b11100100 3"
b11100100 N
b11100100 _
b11100100 o
b11100100 +"
b11110010 7
b11110010 ^
b11110010 m
b11110010 +
b11110010 ]
b11110010 w
b11110010 9"
b11110010 (
b11110010 l
b11110010 -"
b11110010 :"
1Q
#12
b110 1
b110 x
b110 0"
b110 C
b110 u
b110 v
b110 2
b110 V
b110 p
b110 s
b1111 3
b1111 Y
b1111 t
b101 4
b101 U
b101 W
b101 ,"
b101 2"
b11100100 #
b11100100 ="
0Q
#13
b11001000 K
b11001000 r
b11001000 3"
b11001000 N
b11001000 _
b11001000 o
b11001000 +"
b11100100 7
b11100100 ^
b11100100 m
b11100100 +
b11100100 ]
b11100100 w
b11100100 9"
b11100100 (
b11100100 l
b11100100 -"
b11100100 :"
1Q
#14
b11100101 K
b11100101 r
b11100101 3"
b11100101 N
b11100101 _
b11100101 o
b11100101 +"
b1 7
b1 ^
b1 m
b1 O
b1 [
b1 \
b1 H
b1 k
b1 }
b0 ~
1M
b100 P
b100 Z
b100 c
b1010 d
b11111110 >
b11111110 a
b11111110 z
b111111 {
b110 D
b110 X
b110 ""
b1 I
b1 |
b1 %"
b1 )
b1 *"
b1 6"
b101 G
b101 b
b101 &"
b10 ?
b10 y
b10 ("
b110 E
b110 !"
b110 '"
b111 1
b111 x
b111 0"
b111 C
b111 u
b111 v
b111 2
b111 V
b111 p
b111 s
b1100 3
b1100 Y
b1100 t
b10100110 F
b10100110 $"
b10100110 ."
b10100110 1"
b110 4
b110 U
b110 W
b110 ,"
b110 2"
b11001000 #
b11001000 ="
0Q
#15
b11001001 K
b11001001 r
b11001001 3"
b11001001 N
b11001001 _
b11001001 o
b11001001 +"
b11001000 +
b11001000 ]
b11001000 w
b11001000 9"
b0 (
b0 l
b0 -"
b0 :"
1Q
#16
b0 K
b0 r
b0 3"
b0 N
b0 _
b0 o
b0 +"
b0 7
b0 ^
b0 m
b100 O
b100 [
b100 \
b11111110 H
b11111110 k
b11111110 }
b111111 ~
0M
b11 P
b11 Z
b11 c
b110 d
b1 >
b1 a
b1 z
b0 {
b1010 D
b1010 X
b1010 ""
b10 I
b10 |
b10 %"
b10 )
b10 *"
b10 6"
b11 G
b11 b
b11 &"
b1 ?
b1 y
b1 ("
b1010 E
b1010 !"
b1010 '"
b1000 1
b1000 x
b1000 0"
b1000 C
b1000 u
b1000 v
b1000 2
b1000 V
b1000 p
b1000 s
b10001 3
b10001 Y
b10001 t
b1101010 F
b1101010 $"
b1101010 ."
b1101010 1"
b111 4
b111 U
b111 W
b111 ,"
b111 2"
b11001001 #
b11001001 ="
0Q
#17
b10010010 K
b10010010 r
b10010010 3"
b10010010 N
b10010010 _
b10010010 o
b10010010 +"
b11001001 7
b11001001 ^
b11001001 m
b11001001 +
b11001001 ]
b11001001 w
b11001001 9"
b11001001 (
b11001001 l
b11001001 -"
b11001001 :"
1Q
#18
b11001010 K
b11001010 r
b11001010 3"
b11001010 N
b11001010 _
b11001010 o
b11001010 +"
b1 7
b1 ^
b1 m
b1 O
b1 [
b1 \
b1 H
b1 k
b1 }
b0 ~
1M
b100 P
b100 Z
b100 c
b1010 d
b11111110 >
b11111110 a
b11111110 z
b111111 {
b110 D
b110 X
b110 ""
b1 I
b1 |
b1 %"
b1 )
b1 *"
b1 6"
b101 G
b101 b
b101 &"
b10 ?
b10 y
b10 ("
b110 E
b110 !"
b110 '"
b1001 1
b1001 x
b1001 0"
b1001 C
b1001 u
b1001 v
b1001 2
b1001 V
b1001 p
b1001 s
b1110 3
b1110 Y
b1110 t
b10100110 F
b10100110 $"
b10100110 ."
b10100110 1"
b1000 4
b1000 U
b1000 W
b1000 ,"
b1000 2"
b10010010 #
b10010010 ="
0Q
#19
b10010011 K
b10010011 r
b10010011 3"
b10010011 N
b10010011 _
b10010011 o
b10010011 +"
b10010010 +
b10010010 ]
b10010010 w
b10010010 9"
b0 (
b0 l
b0 -"
b0 :"
1Q
#20
b0 K
b0 r
b0 3"
b0 N
b0 _
b0 o
b0 +"
b0 7
b0 ^
b0 m
b100 O
b100 [
b100 \
b11111110 H
b11111110 k
b11111110 }
b111111 ~
0M
b11 P
b11 Z
b11 c
b110 d
b1 >
b1 a
b1 z
b0 {
b1010 D
b1010 X
b1010 ""
b10 I
b10 |
b10 %"
b10 )
b10 *"
b10 6"
b11 G
b11 b
b11 &"
b1 ?
b1 y
b1 ("
b1010 E
b1010 !"
b1010 '"
b1010 1
b1010 x
b1010 0"
b1010 C
b1010 u
b1010 v
b1010 2
b1010 V
b1010 p
b1010 s
b10011 3
b10011 Y
b10011 t
b1101010 F
b1101010 $"
b1101010 ."
b1101010 1"
b1001 4
b1001 U
b1001 W
b1001 ,"
b1001 2"
b10010011 #
b10010011 ="
0Q
#21
b100110 K
b100110 r
b100110 3"
b100110 N
b100110 _
b100110 o
b100110 +"
b10010011 7
b10010011 ^
b10010011 m
b10010011 +
b10010011 ]
b10010011 w
b10010011 9"
b10010011 (
b10010011 l
b10010011 -"
b10010011 :"
1Q
#22
b1011 1
b1011 x
b1011 0"
b1011 C
b1011 u
b1011 v
b1011 2
b1011 V
b1011 p
b1011 s
b10100 3
b10100 Y
b10100 t
b1010 4
b1010 U
b1010 W
b1010 ,"
b1010 2"
b100110 #
b100110 ="
0Q
#23
b1001100 K
b1001100 r
b1001100 3"
b1001100 N
b1001100 _
b1001100 o
b1001100 +"
b100110 7
b100110 ^
b100110 m
b100110 +
b100110 ]
b100110 w
b100110 9"
b100110 (
b100110 l
b100110 -"
b100110 :"
1Q
#24
b100111 K
b100111 r
b100111 3"
b100111 N
b100111 _
b100111 o
b100111 +"
b1 7
b1 ^
b1 m
b1 O
b1 [
b1 \
b1 H
b1 k
b1 }
b0 ~
1M
b100 P
b100 Z
b100 c
b1010 d
b11111110 >
b11111110 a
b11111110 z
b111111 {
b110 D
b110 X
b110 ""
b1 I
b1 |
b1 %"
b1 )
b1 *"
b1 6"
b101 G
b101 b
b101 &"
b10 ?
b10 y
b10 ("
b110 E
b110 !"
b110 '"
b1100 1
b1100 x
b1100 0"
b1100 C
b1100 u
b1100 v
b1100 2
b1100 V
b1100 p
b1100 s
b10001 3
b10001 Y
b10001 t
b10100110 F
b10100110 $"
b10100110 ."
b10100110 1"
b1011 4
b1011 U
b1011 W
b1011 ,"
b1011 2"
b1001100 #
b1001100 ="
0Q
#25
b1001101 K
b1001101 r
b1001101 3"
b1001101 N
b1001101 _
b1001101 o
b1001101 +"
b1001100 +
b1001100 ]
b1001100 w
b1001100 9"
b0 (
b0 l
b0 -"
b0 :"
1Q
#26
b1001100 N
b1001100 _
b1001100 o
b1001100 +"
b0 7
b0 ^
b0 m
b0 K
b0 r
b0 3"
b0 .
b0 q
b0 /"
b111 O
b111 [
b111 \
b0 H
b0 k
b0 }
b0 *
b0 j
b0 5"
18
b1 5
b1 f
b1 :
b1 e
b1 n
1;
b111 P
b111 Z
b111 c
b1000 d
b0 D
b0 X
b0 ""
b0 I
b0 |
b0 %"
b0 ,
b0 i
b0 )"
b0 4"
b0 )
b0 *"
b0 6"
b100 G
b100 b
b100 &"
b0 E
b0 !"
b0 '"
b1101 1
b1101 x
b1101 0"
b1101 C
b1101 u
b1101 v
b1101 2
b1101 V
b1101 p
b1101 s
b1100 3
b1100 Y
b1100 t
b10000000 F
b10000000 $"
b10000000 ."
b10000000 1"
b1100 4
b1100 U
b1100 W
b1100 ,"
b1100 2"
b1001101 #
b1001101 ="
0Q
#27
b101 K
b101 r
b101 3"
b101 .
b101 q
b101 /"
b1001101 N
b1001101 _
b1001101 o
b1001101 +"
b1001101 +
b1001101 ]
b1001101 w
b1001101 9"
1Q
#28
b11111111 N
b11111111 _
b11111111 o
b11111111 +"
b11111111 K
b11111111 r
b11111111 3"
b10 O
b10 [
b10 \
b1 H
b1 k
b1 }
b10 *
b10 j
b10 5"
08
b0 5
b0 f
0M
b0 :
b0 e
b0 n
0;
b1 P
b1 Z
b1 c
b11 d
16
b0 >
b0 a
b0 z
b0 {
b11110110 D
b11110110 X
b11110110 ""
b111 #"
b1 I
b1 |
b1 %"
b10 ,
b10 i
b10 )"
b10 4"
b1 )
b1 *"
b1 6"
b1 G
b1 b
b1 &"
1J
b0 ?
b0 y
b0 ("
b10110 E
b10110 !"
b10110 '"
b1110 1
b1110 x
b1110 0"
b1110 C
b1110 u
b1110 v
b1110 2
b1110 V
b1110 p
b1110 s
b11 3
b11 Y
b11 t
b110110 F
b110110 $"
b110110 ."
b110110 1"
b1101 4
b1101 U
b1101 W
b1101 ,"
b1101 2"
b101 '
b101 ;"
0Q
#29
1Q
#30
b0 K
b0 r
b0 3"
b0 N
b0 _
b0 o
b0 +"
b100 O
b100 [
b100 \
b1 *
b1 j
b1 5"
b11 P
b11 Z
b11 c
b110 d
06
b1 >
b1 a
b1 z
b101 D
b101 X
b101 ""
b0 #"
b1 ,
b1 i
b1 )"
b1 4"
b11 G
b11 b
b11 &"
0J
b1 ?
b1 y
b1 ("
b101 E
b101 !"
b101 '"
b1111 1
b1111 x
b1111 0"
b1111 C
b1111 u
b1111 v
b1111 2
b1111 V
b1111 p
b1111 s
b10011 3
b10011 Y
b10011 t
b1100101 F
b1100101 $"
b1100101 ."
b1100101 1"
b1110 4
b1110 U
b1110 W
b1110 ,"
b1110 2"
b11111111 #
b11111111 ="
0Q
#31
b0 +
b0 ]
b0 w
b0 9"
1Q
#32
b11111110 K
b11111110 r
b11111110 3"
b11111110 N
b11111110 _
b11111110 o
b11111110 +"
b11111110 7
b11111110 ^
b11111110 m
b1 O
b1 [
b1 \
b11111110 H
b11111110 k
b11111110 }
b111111 ~
b10 *
b10 j
b10 5"
1M
b100 P
b100 Z
b100 c
b1010 d
b11111110 >
b11111110 a
b11111110 z
b111111 {
b1010 D
b1010 X
b1010 ""
b10 I
b10 |
b10 %"
b10 ,
b10 i
b10 )"
b10 4"
b10 )
b10 *"
b10 6"
b101 G
b101 b
b101 &"
b10 ?
b10 y
b10 ("
b1010 E
b1010 !"
b1010 '"
b10000 1
b10000 x
b10000 0"
b10000 C
b10000 u
b10000 v
b10000 2
b10000 V
b10000 p
b10000 s
b11001 3
b11001 Y
b11001 t
b10101010 F
b10101010 $"
b10101010 ."
b10101010 1"
b1111 4
b1111 U
b1111 W
b1111 ,"
b1111 2"
0Q
#33
b11111101 K
b11111101 r
b11111101 3"
b11111101 N
b11111101 _
b11111101 o
b11111101 +"
b11111111 +
b11111111 ]
b11111111 w
b11111111 9"
b11111111 (
b11111111 l
b11111111 -"
b11111111 :"
1Q
#34
b11111110 N
b11111110 _
b11111110 o
b11111110 +"
b11 *
b11 j
b11 5"
b11111111 7
b11111111 ^
b11111111 m
b10001 K
b10001 r
b10001 3"
1"
0=
b0 H
b0 k
b0 }
b0 ~
b10 5
b10 f
1/
0M
b0 P
b0 Z
b0 c
1B
b10 :
b10 e
b10 n
1A
b1110 d
b11111111 >
b11111111 a
b11111111 z
b10 D
b10 X
b10 ""
b0 I
b0 |
b0 %"
b0 )
b0 *"
b0 6"
b111 G
b111 b
b111 &"
b11 ?
b11 y
b11 ("
b10 E
b10 !"
b10 '"
b10010 1
b10010 x
b10010 0"
b10010 C
b10010 u
b10010 v
b10001 2
b10001 V
b10001 p
b10001 s
b10010 3
b10010 Y
b10010 t
b11100010 F
b11100010 $"
b11100010 ."
b11100010 1"
b10000 4
b10000 U
b10000 W
b10000 ,"
b10000 2"
b11111101 #
b11111101 ="
0Q
#35
b10 N
b10 _
b10 o
b10 +"
b101 7
b101 ^
b101 m
b11111101 +
b11111101 ]
b11111101 w
b11111101 9"
b101 (
b101 l
b101 -"
b101 :"
1Q
#36
b11111011 N
b11111011 _
b11111011 o
b11111011 +"
b10 *
b10 j
b10 5"
0"
b11111110 7
b11111110 ^
b11111110 m
1=
b11111110 H
b11111110 k
b11111110 }
b111111 ~
b0 5
b0 f
0B
0/
b0 :
b0 e
b0 n
0A
1M
b100 P
b100 Z
b100 c
b1010 d
b11111110 >
b11111110 a
b11111110 z
b1010 D
b1010 X
b1010 ""
b10 I
b10 |
b10 %"
b10 )
b10 *"
b10 6"
b101 G
b101 b
b101 &"
b10 ?
b10 y
b10 ("
b1010 E
b1010 !"
b1010 '"
b10011 1
b10011 x
b10011 0"
b11111011 K
b11111011 r
b11111011 3"
b10011 C
b10011 u
b10011 v
b10011 2
b10011 V
b10011 p
b10011 s
b11100 3
b11100 Y
b11100 t
b10101010 F
b10101010 $"
b10101010 ."
b10101010 1"
b10010 4
b10010 U
b10010 W
b10010 ,"
b10010 2"
b10001 0
b10001 8"
0Q
#37
b11111101 (
b11111101 l
b11111101 -"
b11111101 :"
1Q
#38
b11111101 K
b11111101 r
b11111101 3"
b11111101 N
b11111101 _
b11111101 o
b11111101 +"
b0 7
b0 ^
b0 m
b111 O
b111 [
b111 \
b0 H
b0 k
b0 }
b0 ~
b11 *
b11 j
b11 5"
18
b1 5
b1 f
0-
19
b111 P
b111 Z
b111 c
b1001 d
16
b11110011 D
b11110011 X
b11110011 ""
b111 #"
b0 I
b0 |
b0 %"
b11 ,
b11 i
b11 )"
b11 4"
b0 )
b0 *"
b0 6"
b100 G
b100 b
b100 &"
1J
b10011 E
b10011 !"
b10011 '"
b10100 1
b10100 x
b10100 0"
b10100 C
b10100 u
b10100 v
b10100 2
b10100 V
b10100 p
b10100 s
b110 3
b110 Y
b110 t
b10010011 F
b10010011 $"
b10010011 ."
b10010011 1"
b10011 4
b10011 U
b10011 W
b10011 ,"
b10011 2"
b11111011 #
b11111011 ="
0Q
#39
b11111011 K
b11111011 r
b11111011 3"
b11111011 N
b11111011 _
b11111011 o
b11111011 +"
b11111011 +
b11111011 ]
b11111011 w
b11111011 9"
b10001 (
b10001 l
b10001 -"
b10001 :"
1Q
#40
b11111100 K
b11111100 r
b11111100 3"
b11111100 N
b11111100 _
b11111100 o
b11111100 +"
b1 7
b1 ^
b1 m
b1 H
b1 k
b1 }
b0 *
b0 j
b0 5"
b11110100 D
b11110100 X
b11110100 ""
b1 I
b1 |
b1 %"
b0 ,
b0 i
b0 )"
b0 4"
b1 )
b1 *"
b1 6"
b10100 E
b10100 !"
b10100 '"
b10101 1
b10101 x
b10101 0"
b10101 C
b10101 u
b10101 v
b10101 2
b10101 V
b10101 p
b10101 s
b1000 3
b1000 Y
b1000 t
b10010100 F
b10010100 $"
b10010100 ."
b10010100 1"
b10100 4
b10100 U
b10100 W
b10100 ,"
b10100 2"
0Q
#41
b11111100 N
b11111100 _
b11111100 o
b11111100 +"
b11111011 +
b11111011 ]
b11111011 w
b11111011 9"
b101 (
b101 l
b101 -"
b101 :"
1Q
#42
b11111111 K
b11111111 r
b11111111 3"
b11111111 N
b11111111 _
b11111111 o
b11111111 +"
b101 7
b101 ^
b101 m
b11 O
b11 [
b11 \
08
b0 5
b0 f
0M
09
b10 %
b10 g
b10 7"
1-
b10 P
b10 Z
b10 c
b100 d
06
b1 >
b1 a
b1 z
b0 {
b100 D
b100 X
b100 ""
b0 #"
b10 G
b10 b
b10 &"
0J
b1 ?
b1 y
b1 ("
b100 E
b100 !"
b100 '"
b10110 1
b10110 x
b10110 0"
b10110 C
b10110 u
b10110 v
b10110 2
b10110 V
b10110 p
b10110 s
b11001 3
b11001 Y
b11001 t
b1000100 F
b1000100 $"
b1000100 ."
b1000100 1"
b10101 4
b10101 U
b10101 W
b10101 ,"
b10101 2"
0Q
#43
b0 K
b0 r
b0 3"
b0 N
b0 _
b0 o
b0 +"
b0 7
b0 ^
b0 m
b101 +
b101 ]
b101 w
b101 9"
b0 (
b0 l
b0 -"
b0 :"
1Q
#44
b110 O
b110 [
b110 \
0=
b10 *
b10 j
b10 5"
1L
b0 %
b0 g
b0 7"
0-
b101 P
b101 Z
b101 c
b1100 d
b11111111 >
b11111111 a
b11111111 z
b111111 {
b110 D
b110 X
b110 ""
b10 ,
b10 i
b10 )"
b10 4"
b110 G
b110 b
b110 &"
b11 ?
b11 y
b11 ("
b110 E
b110 !"
b110 '"
b10111 1
b10111 x
b10111 0"
b10111 C
b10111 u
b10111 v
b10111 2
b10111 V
b10111 p
b10111 s
b11100 3
b11100 Y
b11100 t
b11000110 F
b11000110 $"
b11000110 ."
b11000110 1"
b10110 4
b10110 U
b10110 W
b10110 ,"
b10110 2"
0Q
#45
b11100 1
b11100 x
b11100 0"
b11100 C
b11100 u
b11100 v
1"
1!
1<
b0 +
b0 ]
b0 w
b0 9"
1Q
#46
b11111111 K
b11111111 r
b11111111 3"
0"
b11111111 N
b11111111 _
b11111111 o
b11111111 +"
0<
0!
b11111111 7
b11111111 ^
b11111111 m
b1 O
b1 [
b1 \
1=
b11111111 H
b11111111 k
b11111111 }
b111111 ~
b0 *
b0 j
b0 5"
0L
1M
1-
b100 P
b100 Z
b100 c
b1010 d
b11111110 >
b11111110 a
b11111110 z
b1100 D
b1100 X
b1100 ""
b11 I
b11 |
b11 %"
b0 ,
b0 i
b0 )"
b0 4"
b11 )
b11 *"
b11 6"
b101 G
b101 b
b101 &"
b10 ?
b10 y
b10 ("
b1100 E
b1100 !"
b1100 '"
b11101 1
b11101 x
b11101 0"
b11101 C
b11101 u
b11101 v
b11101 2
b11101 V
b11101 p
b11101 s
b101000 3
b101000 Y
b101000 t
b10101100 F
b10101100 $"
b10101100 ."
b10101100 1"
b11100 4
b11100 U
b11100 W
b11100 ,"
b11100 2"
0Q
#47
b100 K
b100 r
b100 3"
b100 N
b100 _
b100 o
b100 +"
b101 +
b101 ]
b101 w
b101 9"
b10001 (
b10001 l
b10001 -"
b10001 :"
1Q
